  0
SECTION
  2
HEADER
  9
$ACADVER
  1
AC1009
  9
$EXTMIN
 10
0.0
 20
0.0
 30
0.0
  9
$EXTMAX
 10
1000.0
 20
1000.0
 30
0.0
  9
$FILLMODE
 70
 0
  9
$SPLFRAME
 70
 1
  0
ENDSEC
  0
SECTION
  2
TABLES
  0
TABLE
  2
LAYER
 70
1
  0
LAYER
  2
0
 70
     0
 62
     7
  6
CONTINUOUS
  0
ENDTAB
  0
ENDSEC
  0
SECTION
  2
ENTITIES
  0
LINE
  8
0
 62
     0
 10
362.289
 20
143.133
 30
0.0
 11
362.641
 21
143.119
 31
0.0
  0
LINE
  8
0
 62
     0
 10
362.641
 20
143.119
 30
0.0
 11
362.994
 21
143.077
 31
0.0
  0
LINE
  8
0
 62
     0
 10
362.994
 20
143.077
 30
0.0
 11
363.343
 21
143.009
 31
0.0
  0
LINE
  8
0
 62
     0
 10
363.343
 20
143.009
 30
0.0
 11
363.686
 21
142.911
 31
0.0
  0
LINE
  8
0
 62
     0
 10
363.686
 20
142.911
 30
0.0
 11
364.017
 21
142.788
 31
0.0
  0
LINE
  8
0
 62
     0
 10
364.017
 20
142.788
 30
0.0
 11
364.342
 21
142.641
 31
0.0
  0
LINE
  8
0
 62
     0
 10
364.342
 20
142.641
 30
0.0
 11
364.652
 21
142.466
 31
0.0
  0
LINE
  8
0
 62
     0
 10
364.652
 20
142.466
 30
0.0
 11
364.945
 21
142.269
 31
0.0
  0
LINE
  8
0
 62
     0
 10
364.945
 20
142.269
 30
0.0
 11
365.224
 21
142.051
 31
0.0
  0
LINE
  8
0
 62
     0
 10
365.224
 20
142.051
 30
0.0
 11
365.485
 21
141.81
 31
0.0
  0
LINE
  8
0
 62
     0
 10
365.485
 20
141.81
 30
0.0
 11
365.725
 21
141.548
 31
0.0
  0
LINE
  8
0
 62
     0
 10
365.725
 20
141.548
 30
0.0
 11
365.943
 21
141.27
 31
0.0
  0
LINE
  8
0
 62
     0
 10
365.943
 20
141.27
 30
0.0
 11
366.141
 21
140.975
 31
0.0
  0
LINE
  8
0
 62
     0
 10
366.141
 20
140.975
 30
0.0
 11
366.317
 21
140.664
 31
0.0
  0
LINE
  8
0
 62
     0
 10
366.317
 20
140.664
 30
0.0
 11
366.466
 21
140.342
 31
0.0
  0
LINE
  8
0
 62
     0
 10
366.466
 20
140.342
 30
0.0
 11
366.586
 21
140.01
 31
0.0
  0
LINE
  8
0
 62
     0
 10
366.586
 20
140.01
 30
0.0
 11
366.684
 21
139.668
 31
0.0
  0
LINE
  8
0
 62
     0
 10
366.684
 20
139.668
 30
0.0
 11
366.751
 21
139.32
 31
0.0
  0
LINE
  8
0
 62
     0
 10
366.751
 20
139.32
 30
0.0
 11
366.794
 21
138.967
 31
0.0
  0
LINE
  8
0
 62
     0
 10
366.794
 20
138.967
 30
0.0
 11
366.808
 21
138.613
 31
0.0
  0
LINE
  8
0
 62
     0
 10
366.808
 20
138.613
 30
0.0
 11
366.808
 21
4.77629
 31
0.0
  0
LINE
  8
0
 62
     0
 10
366.808
 20
4.77629
 30
0.0
 11
366.794
 21
4.42214
 31
0.0
  0
LINE
  8
0
 62
     0
 10
366.794
 20
4.42214
 30
0.0
 11
366.751
 21
4.06936
 31
0.0
  0
LINE
  8
0
 62
     0
 10
366.751
 20
4.06936
 30
0.0
 11
366.684
 21
3.72071
 31
0.0
  0
LINE
  8
0
 62
     0
 10
366.684
 20
3.72071
 30
0.0
 11
366.586
 21
3.38033
 31
0.0
  0
LINE
  8
0
 62
     0
 10
366.586
 20
3.38033
 30
0.0
 11
366.466
 21
3.04684
 31
0.0
  0
LINE
  8
0
 62
     0
 10
366.466
 20
3.04684
 30
0.0
 11
366.317
 21
2.72438
 31
0.0
  0
LINE
  8
0
 62
     0
 10
366.317
 20
2.72438
 30
0.0
 11
366.141
 21
2.4157
 31
0.0
  0
LINE
  8
0
 62
     0
 10
366.141
 20
2.4157
 30
0.0
 11
365.943
 21
2.1208
 31
0.0
  0
LINE
  8
0
 62
     0
 10
365.943
 20
2.1208
 30
0.0
 11
365.725
 21
1.84106
 31
0.0
  0
LINE
  8
0
 62
     0
 10
365.725
 20
1.84106
 30
0.0
 11
365.485
 21
1.58061
 31
0.0
  0
LINE
  8
0
 62
     0
 10
365.485
 20
1.58061
 30
0.0
 11
365.224
 21
1.33945
 31
0.0
  0
LINE
  8
0
 62
     0
 10
365.224
 20
1.33945
 30
0.0
 11
364.945
 21
1.12034
 31
0.0
  0
LINE
  8
0
 62
     0
 10
364.945
 20
1.12034
 30
0.0
 11
364.652
 21
0.923286
 31
0.0
  0
LINE
  8
0
 62
     0
 10
364.652
 20
0.923286
 30
0.0
 11
364.342
 21
0.749653
 31
0.0
  0
LINE
  8
0
 62
     0
 10
364.342
 20
0.749653
 30
0.0
 11
364.017
 21
0.600826
 31
0.0
  0
LINE
  8
0
 62
     0
 10
364.017
 20
0.600826
 30
0.0
 11
363.686
 21
0.47818
 31
0.0
  0
LINE
  8
0
 62
     0
 10
363.686
 20
0.47818
 30
0.0
 11
363.343
 21
0.381716
 31
0.0
  0
LINE
  8
0
 62
     0
 10
363.343
 20
0.381716
 30
0.0
 11
362.994
 21
0.312815
 31
0.0
  0
LINE
  8
0
 62
     0
 10
362.994
 20
0.312815
 30
0.0
 11
362.641
 21
0.270095
 31
0.0
  0
LINE
  8
0
 62
     0
 10
362.641
 20
0.270095
 30
0.0
 11
362.289
 21
0.256315
 31
0.0
  0
LINE
  8
0
 62
     0
 10
362.289
 20
0.256315
 30
0.0
 11
4.61504
 21
0.256315
 31
0.0
  0
LINE
  8
0
 62
     0
 10
4.61504
 20
0.256315
 30
0.0
 11
4.26089
 21
0.270095
 31
0.0
  0
LINE
  8
0
 62
     0
 10
4.26089
 20
0.270095
 30
0.0
 11
3.90811
 21
0.312815
 31
0.0
  0
LINE
  8
0
 62
     0
 10
3.90811
 20
0.312815
 30
0.0
 11
3.55946
 21
0.381716
 31
0.0
  0
LINE
  8
0
 62
     0
 10
3.55946
 20
0.381716
 30
0.0
 11
3.21772
 21
0.47818
 31
0.0
  0
LINE
  8
0
 62
     0
 10
3.21772
 20
0.47818
 30
0.0
 11
2.88561
 21
0.600826
 31
0.0
  0
LINE
  8
0
 62
     0
 10
2.88561
 20
0.600826
 30
0.0
 11
2.56315
 21
0.749653
 31
0.0
  0
LINE
  8
0
 62
     0
 10
2.56315
 20
0.749653
 30
0.0
 11
2.25309
 21
0.923286
 31
0.0
  0
LINE
  8
0
 62
     0
 10
2.25309
 20
0.923286
 30
0.0
 11
1.95819
 21
1.12034
 31
0.0
  0
LINE
  8
0
 62
     0
 10
1.95819
 20
1.12034
 30
0.0
 11
1.67983
 21
1.33945
 31
0.0
  0
LINE
  8
0
 62
     0
 10
1.67983
 20
1.33945
 30
0.0
 11
1.418
 21
1.58061
 31
0.0
  0
LINE
  8
0
 62
     0
 10
1.418
 20
1.58061
 30
0.0
 11
1.17685
 21
1.84106
 31
0.0
  0
LINE
  8
0
 62
     0
 10
1.17685
 20
1.84106
 30
0.0
 11
0.959115
 21
2.1208
 31
0.0
  0
LINE
  8
0
 62
     0
 10
0.959115
 20
2.1208
 30
0.0
 11
0.762056
 21
2.4157
 31
0.0
  0
LINE
  8
0
 62
     0
 10
0.762056
 20
2.4157
 30
0.0
 11
0.587043
 21
2.72438
 31
0.0
  0
LINE
  8
0
 62
     0
 10
0.587043
 20
2.72438
 30
0.0
 11
0.439593
 21
3.04684
 31
0.0
  0
LINE
  8
0
 62
     0
 10
0.439593
 20
3.04684
 30
0.0
 11
0.316949
 21
3.38033
 31
0.0
  0
LINE
  8
0
 62
     0
 10
0.316949
 20
3.38033
 30
0.0
 11
0.219108
 21
3.72071
 31
0.0
  0
LINE
  8
0
 62
     0
 10
0.219108
 20
3.72071
 30
0.0
 11
0.150206
 21
4.06936
 31
0.0
  0
LINE
  8
0
 62
     0
 10
0.150206
 20
4.06936
 30
0.0
 11
0.108865
 21
4.42214
 31
0.0
  0
LINE
  8
0
 62
     0
 10
0.108865
 20
4.42214
 30
0.0
 11
0.0950846
 21
4.77767
 31
0.0
  0
LINE
  8
0
 62
     0
 10
0.0950846
 20
4.77767
 30
0.0
 11
0.0950846
 21
138.613
 31
0.0
  0
LINE
  8
0
 62
     0
 10
0.0950846
 20
138.613
 30
0.0
 11
0.108865
 21
138.967
 31
0.0
  0
LINE
  8
0
 62
     0
 10
0.108865
 20
138.967
 30
0.0
 11
0.150206
 21
139.32
 31
0.0
  0
LINE
  8
0
 62
     0
 10
0.150206
 20
139.32
 30
0.0
 11
0.219108
 21
139.668
 31
0.0
  0
LINE
  8
0
 62
     0
 10
0.219108
 20
139.668
 30
0.0
 11
0.316949
 21
140.01
 31
0.0
  0
LINE
  8
0
 62
     0
 10
0.316949
 20
140.01
 30
0.0
 11
0.439593
 21
140.342
 31
0.0
  0
LINE
  8
0
 62
     0
 10
0.439593
 20
140.342
 30
0.0
 11
0.587043
 21
140.664
 31
0.0
  0
LINE
  8
0
 62
     0
 10
0.587043
 20
140.664
 30
0.0
 11
0.762056
 21
140.975
 31
0.0
  0
LINE
  8
0
 62
     0
 10
0.762056
 20
140.975
 30
0.0
 11
0.959115
 21
141.27
 31
0.0
  0
LINE
  8
0
 62
     0
 10
0.959115
 20
141.27
 30
0.0
 11
1.17685
 21
141.548
 31
0.0
  0
LINE
  8
0
 62
     0
 10
1.17685
 20
141.548
 30
0.0
 11
1.418
 21
141.81
 31
0.0
  0
LINE
  8
0
 62
     0
 10
1.418
 20
141.81
 30
0.0
 11
1.67983
 21
142.051
 31
0.0
  0
LINE
  8
0
 62
     0
 10
1.67983
 20
142.051
 30
0.0
 11
1.95819
 21
142.269
 31
0.0
  0
LINE
  8
0
 62
     0
 10
1.95819
 20
142.269
 30
0.0
 11
2.25309
 21
142.466
 31
0.0
  0
LINE
  8
0
 62
     0
 10
2.25309
 20
142.466
 30
0.0
 11
2.56315
 21
142.641
 31
0.0
  0
LINE
  8
0
 62
     0
 10
2.56315
 20
142.641
 30
0.0
 11
2.88561
 21
142.788
 31
0.0
  0
LINE
  8
0
 62
     0
 10
2.88561
 20
142.788
 30
0.0
 11
3.21772
 21
142.911
 31
0.0
  0
LINE
  8
0
 62
     0
 10
3.21772
 20
142.911
 30
0.0
 11
3.55946
 21
143.009
 31
0.0
  0
LINE
  8
0
 62
     0
 10
3.55946
 20
143.009
 30
0.0
 11
3.90811
 21
143.077
 31
0.0
  0
LINE
  8
0
 62
     0
 10
3.90811
 20
143.077
 30
0.0
 11
4.26089
 21
143.119
 31
0.0
  0
LINE
  8
0
 62
     0
 10
4.26089
 20
143.119
 30
0.0
 11
4.61504
 21
143.133
 31
0.0
  0
LINE
  8
0
 62
     0
 10
4.61504
 20
143.133
 30
0.0
 11
362.289
 21
143.133
 31
0.0
  0
LINE
  8
0
 62
     0
 10
188.939
 20
25.7583
 30
0.0
 11
192.239
 21
25.7583
 31
0.0
  0
LINE
  8
0
 62
     0
 10
192.239
 20
25.7583
 30
0.0
 11
192.239
 21
11.5576
 31
0.0
  0
LINE
  8
0
 62
     0
 10
192.239
 20
11.5576
 30
0.0
 11
188.939
 21
11.5576
 31
0.0
  0
LINE
  8
0
 62
     0
 10
188.939
 20
11.5576
 30
0.0
 11
188.939
 21
25.7583
 31
0.0
  0
LINE
  8
0
 62
     0
 10
88.9385
 20
25.7583
 30
0.0
 11
92.239
 21
25.7583
 31
0.0
  0
LINE
  8
0
 62
     0
 10
92.239
 20
25.7583
 30
0.0
 11
92.239
 21
11.5576
 31
0.0
  0
LINE
  8
0
 62
     0
 10
92.239
 20
11.5576
 30
0.0
 11
88.9385
 21
11.5576
 31
0.0
  0
LINE
  8
0
 62
     0
 10
88.9385
 20
11.5576
 30
0.0
 11
88.9385
 21
25.7583
 31
0.0
  0
LINE
  8
0
 62
     0
 10
339.958
 20
25.7087
 30
0.0
 11
355.558
 21
25.7087
 31
0.0
  0
LINE
  8
0
 62
     0
 10
355.558
 20
25.7087
 30
0.0
 11
355.558
 21
12.9067
 31
0.0
  0
LINE
  8
0
 62
     0
 10
355.558
 20
12.9067
 30
0.0
 11
339.958
 21
12.9067
 31
0.0
  0
LINE
  8
0
 62
     0
 10
339.958
 20
12.9067
 30
0.0
 11
339.958
 21
25.7087
 31
0.0
  0
LINE
  8
0
 62
     0
 10
320.908
 20
25.7087
 30
0.0
 11
336.507
 21
25.7087
 31
0.0
  0
LINE
  8
0
 62
     0
 10
336.507
 20
25.7087
 30
0.0
 11
336.507
 21
12.9067
 31
0.0
  0
LINE
  8
0
 62
     0
 10
336.507
 20
12.9067
 30
0.0
 11
320.908
 21
12.9067
 31
0.0
  0
LINE
  8
0
 62
     0
 10
320.908
 20
12.9067
 30
0.0
 11
320.908
 21
25.7087
 31
0.0
  0
LINE
  8
0
 62
     0
 10
301.858
 20
25.7087
 30
0.0
 11
317.457
 21
25.7087
 31
0.0
  0
LINE
  8
0
 62
     0
 10
317.457
 20
25.7087
 30
0.0
 11
317.457
 21
12.9067
 31
0.0
  0
LINE
  8
0
 62
     0
 10
317.457
 20
12.9067
 30
0.0
 11
301.858
 21
12.9067
 31
0.0
  0
LINE
  8
0
 62
     0
 10
301.858
 20
12.9067
 30
0.0
 11
301.858
 21
25.7087
 31
0.0
  0
LINE
  8
0
 62
     0
 10
275.664
 20
25.7087
 30
0.0
 11
291.264
 21
25.7087
 31
0.0
  0
LINE
  8
0
 62
     0
 10
291.264
 20
25.7087
 30
0.0
 11
291.264
 21
12.9067
 31
0.0
  0
LINE
  8
0
 62
     0
 10
291.264
 20
12.9067
 30
0.0
 11
275.664
 21
12.9067
 31
0.0
  0
LINE
  8
0
 62
     0
 10
275.664
 20
12.9067
 30
0.0
 11
275.664
 21
25.7087
 31
0.0
  0
LINE
  8
0
 62
     0
 10
251.85
 20
25.7087
 30
0.0
 11
267.451
 21
25.7087
 31
0.0
  0
LINE
  8
0
 62
     0
 10
267.451
 20
25.7087
 30
0.0
 11
267.451
 21
12.9067
 31
0.0
  0
LINE
  8
0
 62
     0
 10
267.451
 20
12.9067
 30
0.0
 11
251.85
 21
12.9067
 31
0.0
  0
LINE
  8
0
 62
     0
 10
251.85
 20
12.9067
 30
0.0
 11
251.85
 21
25.7087
 31
0.0
  0
LINE
  8
0
 62
     0
 10
228.039
 20
25.7087
 30
0.0
 11
243.639
 21
25.7087
 31
0.0
  0
LINE
  8
0
 62
     0
 10
243.639
 20
25.7087
 30
0.0
 11
243.639
 21
12.9067
 31
0.0
  0
LINE
  8
0
 62
     0
 10
243.639
 20
12.9067
 30
0.0
 11
228.039
 21
12.9067
 31
0.0
  0
LINE
  8
0
 62
     0
 10
228.039
 20
12.9067
 30
0.0
 11
228.039
 21
25.7087
 31
0.0
  0
LINE
  8
0
 62
     0
 10
204.227
 20
25.7087
 30
0.0
 11
219.826
 21
25.7087
 31
0.0
  0
LINE
  8
0
 62
     0
 10
219.826
 20
25.7087
 30
0.0
 11
219.826
 21
12.9067
 31
0.0
  0
LINE
  8
0
 62
     0
 10
219.826
 20
12.9067
 30
0.0
 11
204.227
 21
12.9067
 31
0.0
  0
LINE
  8
0
 62
     0
 10
204.227
 20
12.9067
 30
0.0
 11
204.227
 21
25.7087
 31
0.0
  0
LINE
  8
0
 62
     0
 10
132.789
 20
25.7087
 30
0.0
 11
148.389
 21
25.7087
 31
0.0
  0
LINE
  8
0
 62
     0
 10
148.389
 20
25.7087
 30
0.0
 11
148.389
 21
12.9067
 31
0.0
  0
LINE
  8
0
 62
     0
 10
148.389
 20
12.9067
 30
0.0
 11
132.789
 21
12.9067
 31
0.0
  0
LINE
  8
0
 62
     0
 10
132.789
 20
12.9067
 30
0.0
 11
132.789
 21
25.7087
 31
0.0
  0
LINE
  8
0
 62
     0
 10
61.3516
 20
25.7087
 30
0.0
 11
76.9511
 21
25.7087
 31
0.0
  0
LINE
  8
0
 62
     0
 10
76.9511
 20
25.7087
 30
0.0
 11
76.9511
 21
12.9067
 31
0.0
  0
LINE
  8
0
 62
     0
 10
76.9511
 20
12.9067
 30
0.0
 11
61.3516
 21
12.9067
 31
0.0
  0
LINE
  8
0
 62
     0
 10
61.3516
 20
12.9067
 30
0.0
 11
61.3516
 21
25.7087
 31
0.0
  0
LINE
  8
0
 62
     0
 10
37.5391
 20
25.7087
 30
0.0
 11
53.1386
 21
25.7087
 31
0.0
  0
LINE
  8
0
 62
     0
 10
53.1386
 20
25.7087
 30
0.0
 11
53.1386
 21
12.9067
 31
0.0
  0
LINE
  8
0
 62
     0
 10
53.1386
 20
12.9067
 30
0.0
 11
37.5391
 21
12.9067
 31
0.0
  0
LINE
  8
0
 62
     0
 10
37.5391
 20
12.9067
 30
0.0
 11
37.5391
 21
25.7087
 31
0.0
  0
LINE
  8
0
 62
     0
 10
13.7267
 20
25.7087
 30
0.0
 11
29.326
 21
25.7087
 31
0.0
  0
LINE
  8
0
 62
     0
 10
29.326
 20
25.7087
 30
0.0
 11
29.326
 21
12.9067
 31
0.0
  0
LINE
  8
0
 62
     0
 10
29.326
 20
12.9067
 30
0.0
 11
13.7267
 21
12.9067
 31
0.0
  0
LINE
  8
0
 62
     0
 10
13.7267
 20
12.9067
 30
0.0
 11
13.7267
 21
25.7087
 31
0.0
  0
LINE
  8
0
 62
     0
 10
279.426
 20
44.8084
 30
0.0
 11
282.727
 21
44.8084
 31
0.0
  0
LINE
  8
0
 62
     0
 10
282.727
 20
44.8084
 30
0.0
 11
282.727
 21
30.6076
 31
0.0
  0
LINE
  8
0
 62
     0
 10
282.727
 20
30.6076
 30
0.0
 11
279.426
 21
30.6076
 31
0.0
  0
LINE
  8
0
 62
     0
 10
279.426
 20
30.6076
 30
0.0
 11
279.426
 21
44.8084
 31
0.0
  0
LINE
  8
0
 62
     0
 10
255.626
 20
44.8084
 30
0.0
 11
258.927
 21
44.8084
 31
0.0
  0
LINE
  8
0
 62
     0
 10
258.927
 20
44.8084
 30
0.0
 11
258.927
 21
30.6076
 31
0.0
  0
LINE
  8
0
 62
     0
 10
258.927
 20
30.6076
 30
0.0
 11
255.626
 21
30.6076
 31
0.0
  0
LINE
  8
0
 62
     0
 10
255.626
 20
30.6076
 30
0.0
 11
255.626
 21
44.8084
 31
0.0
  0
LINE
  8
0
 62
     0
 10
41.3011
 20
44.8084
 30
0.0
 11
44.6017
 21
44.8084
 31
0.0
  0
LINE
  8
0
 62
     0
 10
44.6017
 20
44.8084
 30
0.0
 11
44.6017
 21
30.6076
 31
0.0
  0
LINE
  8
0
 62
     0
 10
44.6017
 20
30.6076
 30
0.0
 11
41.3011
 21
30.6076
 31
0.0
  0
LINE
  8
0
 62
     0
 10
41.3011
 20
30.6076
 30
0.0
 11
41.3011
 21
44.8084
 31
0.0
  0
LINE
  8
0
 62
     0
 10
17.5011
 20
44.8084
 30
0.0
 11
20.8015
 21
44.8084
 31
0.0
  0
LINE
  8
0
 62
     0
 10
20.8015
 20
44.8084
 30
0.0
 11
20.8015
 21
30.6076
 31
0.0
  0
LINE
  8
0
 62
     0
 10
20.8015
 20
30.6076
 30
0.0
 11
17.5011
 21
30.6076
 31
0.0
  0
LINE
  8
0
 62
     0
 10
17.5011
 20
30.6076
 30
0.0
 11
17.5011
 21
44.8084
 31
0.0
  0
LINE
  8
0
 62
     0
 10
320.908
 20
44.7587
 30
0.0
 11
336.507
 21
44.7587
 31
0.0
  0
LINE
  8
0
 62
     0
 10
336.507
 20
44.7587
 30
0.0
 11
336.507
 21
31.9567
 31
0.0
  0
LINE
  8
0
 62
     0
 10
336.507
 20
31.9567
 30
0.0
 11
320.908
 21
31.9567
 31
0.0
  0
LINE
  8
0
 62
     0
 10
320.908
 20
31.9567
 30
0.0
 11
320.908
 21
44.7587
 31
0.0
  0
LINE
  8
0
 62
     0
 10
261.377
 20
44.7587
 30
0.0
 11
276.976
 21
44.7587
 31
0.0
  0
LINE
  8
0
 62
     0
 10
276.976
 20
44.7587
 30
0.0
 11
276.976
 21
31.9567
 31
0.0
  0
LINE
  8
0
 62
     0
 10
276.976
 20
31.9567
 30
0.0
 11
261.377
 21
31.9567
 31
0.0
  0
LINE
  8
0
 62
     0
 10
261.377
 20
31.9567
 30
0.0
 11
261.377
 21
44.7587
 31
0.0
  0
LINE
  8
0
 62
     0
 10
225.658
 20
44.7587
 30
0.0
 11
241.257
 21
44.7587
 31
0.0
  0
LINE
  8
0
 62
     0
 10
241.257
 20
44.7587
 30
0.0
 11
241.257
 21
31.9567
 31
0.0
  0
LINE
  8
0
 62
     0
 10
241.257
 20
31.9567
 30
0.0
 11
225.658
 21
31.9567
 31
0.0
  0
LINE
  8
0
 62
     0
 10
225.658
 20
31.9567
 30
0.0
 11
225.658
 21
44.7587
 31
0.0
  0
LINE
  8
0
 62
     0
 10
206.608
 20
44.7587
 30
0.0
 11
222.207
 21
44.7587
 31
0.0
  0
LINE
  8
0
 62
     0
 10
222.207
 20
44.7587
 30
0.0
 11
222.207
 21
31.9567
 31
0.0
  0
LINE
  8
0
 62
     0
 10
222.207
 20
31.9567
 30
0.0
 11
206.608
 21
31.9567
 31
0.0
  0
LINE
  8
0
 62
     0
 10
206.608
 20
31.9567
 30
0.0
 11
206.608
 21
44.7587
 31
0.0
  0
LINE
  8
0
 62
     0
 10
187.558
 20
44.7587
 30
0.0
 11
203.157
 21
44.7587
 31
0.0
  0
LINE
  8
0
 62
     0
 10
203.157
 20
44.7587
 30
0.0
 11
203.157
 21
31.9567
 31
0.0
  0
LINE
  8
0
 62
     0
 10
203.157
 20
31.9567
 30
0.0
 11
187.558
 21
31.9567
 31
0.0
  0
LINE
  8
0
 62
     0
 10
187.558
 20
31.9567
 30
0.0
 11
187.558
 21
44.7587
 31
0.0
  0
LINE
  8
0
 62
     0
 10
168.508
 20
44.7587
 30
0.0
 11
184.107
 21
44.7587
 31
0.0
  0
LINE
  8
0
 62
     0
 10
184.107
 20
44.7587
 30
0.0
 11
184.107
 21
31.9567
 31
0.0
  0
LINE
  8
0
 62
     0
 10
184.107
 20
31.9567
 30
0.0
 11
168.508
 21
31.9567
 31
0.0
  0
LINE
  8
0
 62
     0
 10
168.508
 20
31.9567
 30
0.0
 11
168.508
 21
44.7587
 31
0.0
  0
LINE
  8
0
 62
     0
 10
149.458
 20
44.7587
 30
0.0
 11
165.057
 21
44.7587
 31
0.0
  0
LINE
  8
0
 62
     0
 10
165.057
 20
44.7587
 30
0.0
 11
165.057
 21
31.9567
 31
0.0
  0
LINE
  8
0
 62
     0
 10
165.057
 20
31.9567
 30
0.0
 11
149.458
 21
31.9567
 31
0.0
  0
LINE
  8
0
 62
     0
 10
149.458
 20
31.9567
 30
0.0
 11
149.458
 21
44.7587
 31
0.0
  0
LINE
  8
0
 62
     0
 10
130.408
 20
44.7587
 30
0.0
 11
146.007
 21
44.7587
 31
0.0
  0
LINE
  8
0
 62
     0
 10
146.007
 20
44.7587
 30
0.0
 11
146.007
 21
31.9567
 31
0.0
  0
LINE
  8
0
 62
     0
 10
146.007
 20
31.9567
 30
0.0
 11
130.408
 21
31.9567
 31
0.0
  0
LINE
  8
0
 62
     0
 10
130.408
 20
31.9567
 30
0.0
 11
130.408
 21
44.7587
 31
0.0
  0
LINE
  8
0
 62
     0
 10
111.358
 20
44.7587
 30
0.0
 11
126.957
 21
44.7587
 31
0.0
  0
LINE
  8
0
 62
     0
 10
126.957
 20
44.7587
 30
0.0
 11
126.957
 21
31.9567
 31
0.0
  0
LINE
  8
0
 62
     0
 10
126.957
 20
31.9567
 30
0.0
 11
111.358
 21
31.9567
 31
0.0
  0
LINE
  8
0
 62
     0
 10
111.358
 20
31.9567
 30
0.0
 11
111.358
 21
44.7587
 31
0.0
  0
LINE
  8
0
 62
     0
 10
92.3078
 20
44.7587
 30
0.0
 11
107.907
 21
44.7587
 31
0.0
  0
LINE
  8
0
 62
     0
 10
107.907
 20
44.7587
 30
0.0
 11
107.907
 21
31.9567
 31
0.0
  0
LINE
  8
0
 62
     0
 10
107.907
 20
31.9567
 30
0.0
 11
92.3078
 21
31.9567
 31
0.0
  0
LINE
  8
0
 62
     0
 10
92.3078
 20
31.9567
 30
0.0
 11
92.3078
 21
44.7587
 31
0.0
  0
LINE
  8
0
 62
     0
 10
73.2578
 20
44.7587
 30
0.0
 11
88.8573
 21
44.7587
 31
0.0
  0
LINE
  8
0
 62
     0
 10
88.8573
 20
44.7587
 30
0.0
 11
88.8573
 21
31.9567
 31
0.0
  0
LINE
  8
0
 62
     0
 10
88.8573
 20
31.9567
 30
0.0
 11
73.2578
 21
31.9567
 31
0.0
  0
LINE
  8
0
 62
     0
 10
73.2578
 20
31.9567
 30
0.0
 11
73.2578
 21
44.7587
 31
0.0
  0
LINE
  8
0
 62
     0
 10
54.2078
 20
44.7587
 30
0.0
 11
69.8073
 21
44.7587
 31
0.0
  0
LINE
  8
0
 62
     0
 10
69.8073
 20
44.7587
 30
0.0
 11
69.8073
 21
31.9567
 31
0.0
  0
LINE
  8
0
 62
     0
 10
69.8073
 20
31.9567
 30
0.0
 11
54.2078
 21
31.9567
 31
0.0
  0
LINE
  8
0
 62
     0
 10
54.2078
 20
31.9567
 30
0.0
 11
54.2078
 21
44.7587
 31
0.0
  0
LINE
  8
0
 62
     0
 10
23.2517
 20
44.7587
 30
0.0
 11
38.8511
 21
44.7587
 31
0.0
  0
LINE
  8
0
 62
     0
 10
38.8511
 20
44.7587
 30
0.0
 11
38.8511
 21
31.9567
 31
0.0
  0
LINE
  8
0
 62
     0
 10
38.8511
 20
31.9567
 30
0.0
 11
23.2517
 21
31.9567
 31
0.0
  0
LINE
  8
0
 62
     0
 10
23.2517
 20
31.9567
 30
0.0
 11
23.2517
 21
44.7587
 31
0.0
  0
LINE
  8
0
 62
     0
 10
284.189
 20
63.8584
 30
0.0
 11
287.489
 21
63.8584
 31
0.0
  0
LINE
  8
0
 62
     0
 10
287.489
 20
63.8584
 30
0.0
 11
287.489
 21
49.6577
 31
0.0
  0
LINE
  8
0
 62
     0
 10
287.489
 20
49.6577
 30
0.0
 11
284.189
 21
49.6577
 31
0.0
  0
LINE
  8
0
 62
     0
 10
284.189
 20
49.6577
 30
0.0
 11
284.189
 21
63.8584
 31
0.0
  0
LINE
  8
0
 62
     0
 10
260.388
 20
63.8584
 30
0.0
 11
263.689
 21
63.8584
 31
0.0
  0
LINE
  8
0
 62
     0
 10
263.689
 20
63.8584
 30
0.0
 11
263.689
 21
49.6577
 31
0.0
  0
LINE
  8
0
 62
     0
 10
263.689
 20
49.6577
 30
0.0
 11
260.388
 21
49.6577
 31
0.0
  0
LINE
  8
0
 62
     0
 10
260.388
 20
49.6577
 30
0.0
 11
260.388
 21
63.8584
 31
0.0
  0
LINE
  8
0
 62
     0
 10
266.139
 20
63.8087
 30
0.0
 11
281.739
 21
63.8087
 31
0.0
  0
LINE
  8
0
 62
     0
 10
281.739
 20
63.8087
 30
0.0
 11
281.739
 21
51.0067
 31
0.0
  0
LINE
  8
0
 62
     0
 10
281.739
 20
51.0067
 30
0.0
 11
266.139
 21
51.0067
 31
0.0
  0
LINE
  8
0
 62
     0
 10
266.139
 20
51.0067
 30
0.0
 11
266.139
 21
63.8087
 31
0.0
  0
LINE
  8
0
 62
     0
 10
235.183
 20
63.8087
 30
0.0
 11
250.782
 21
63.8087
 31
0.0
  0
LINE
  8
0
 62
     0
 10
250.782
 20
63.8087
 30
0.0
 11
250.782
 21
51.0067
 31
0.0
  0
LINE
  8
0
 62
     0
 10
250.782
 20
51.0067
 30
0.0
 11
235.183
 21
51.0067
 31
0.0
  0
LINE
  8
0
 62
     0
 10
235.183
 20
51.0067
 30
0.0
 11
235.183
 21
63.8087
 31
0.0
  0
LINE
  8
0
 62
     0
 10
216.133
 20
63.8087
 30
0.0
 11
231.732
 21
63.8087
 31
0.0
  0
LINE
  8
0
 62
     0
 10
231.732
 20
63.8087
 30
0.0
 11
231.732
 21
51.0067
 31
0.0
  0
LINE
  8
0
 62
     0
 10
231.732
 20
51.0067
 30
0.0
 11
216.133
 21
51.0067
 31
0.0
  0
LINE
  8
0
 62
     0
 10
216.133
 20
51.0067
 30
0.0
 11
216.133
 21
63.8087
 31
0.0
  0
LINE
  8
0
 62
     0
 10
197.083
 20
63.8087
 30
0.0
 11
212.682
 21
63.8087
 31
0.0
  0
LINE
  8
0
 62
     0
 10
212.682
 20
63.8087
 30
0.0
 11
212.682
 21
51.0067
 31
0.0
  0
LINE
  8
0
 62
     0
 10
212.682
 20
51.0067
 30
0.0
 11
197.083
 21
51.0067
 31
0.0
  0
LINE
  8
0
 62
     0
 10
197.083
 20
51.0067
 30
0.0
 11
197.083
 21
63.8087
 31
0.0
  0
LINE
  8
0
 62
     0
 10
178.033
 20
63.8087
 30
0.0
 11
193.632
 21
63.8087
 31
0.0
  0
LINE
  8
0
 62
     0
 10
193.632
 20
63.8087
 30
0.0
 11
193.632
 21
51.0067
 31
0.0
  0
LINE
  8
0
 62
     0
 10
193.632
 20
51.0067
 30
0.0
 11
178.033
 21
51.0067
 31
0.0
  0
LINE
  8
0
 62
     0
 10
178.033
 20
51.0067
 30
0.0
 11
178.033
 21
63.8087
 31
0.0
  0
LINE
  8
0
 62
     0
 10
158.983
 20
63.8087
 30
0.0
 11
174.582
 21
63.8087
 31
0.0
  0
LINE
  8
0
 62
     0
 10
174.582
 20
63.8087
 30
0.0
 11
174.582
 21
51.0067
 31
0.0
  0
LINE
  8
0
 62
     0
 10
174.582
 20
51.0067
 30
0.0
 11
158.983
 21
51.0067
 31
0.0
  0
LINE
  8
0
 62
     0
 10
158.983
 20
51.0067
 30
0.0
 11
158.983
 21
63.8087
 31
0.0
  0
LINE
  8
0
 62
     0
 10
139.933
 20
63.8087
 30
0.0
 11
155.532
 21
63.8087
 31
0.0
  0
LINE
  8
0
 62
     0
 10
155.532
 20
63.8087
 30
0.0
 11
155.532
 21
51.0067
 31
0.0
  0
LINE
  8
0
 62
     0
 10
155.532
 20
51.0067
 30
0.0
 11
139.933
 21
51.0067
 31
0.0
  0
LINE
  8
0
 62
     0
 10
139.933
 20
51.0067
 30
0.0
 11
139.933
 21
63.8087
 31
0.0
  0
LINE
  8
0
 62
     0
 10
120.883
 20
63.8087
 30
0.0
 11
136.482
 21
63.8087
 31
0.0
  0
LINE
  8
0
 62
     0
 10
136.482
 20
63.8087
 30
0.0
 11
136.482
 21
51.0067
 31
0.0
  0
LINE
  8
0
 62
     0
 10
136.482
 20
51.0067
 30
0.0
 11
120.883
 21
51.0067
 31
0.0
  0
LINE
  8
0
 62
     0
 10
120.883
 20
51.0067
 30
0.0
 11
120.883
 21
63.8087
 31
0.0
  0
LINE
  8
0
 62
     0
 10
101.833
 20
63.8087
 30
0.0
 11
117.432
 21
63.8087
 31
0.0
  0
LINE
  8
0
 62
     0
 10
117.432
 20
63.8087
 30
0.0
 11
117.432
 21
51.0067
 31
0.0
  0
LINE
  8
0
 62
     0
 10
117.432
 20
51.0067
 30
0.0
 11
101.833
 21
51.0067
 31
0.0
  0
LINE
  8
0
 62
     0
 10
101.833
 20
51.0067
 30
0.0
 11
101.833
 21
63.8087
 31
0.0
  0
LINE
  8
0
 62
     0
 10
82.7828
 20
63.8087
 30
0.0
 11
98.3823
 21
63.8087
 31
0.0
  0
LINE
  8
0
 62
     0
 10
98.3823
 20
63.8087
 30
0.0
 11
98.3823
 21
51.0067
 31
0.0
  0
LINE
  8
0
 62
     0
 10
98.3823
 20
51.0067
 30
0.0
 11
82.7828
 21
51.0067
 31
0.0
  0
LINE
  8
0
 62
     0
 10
82.7828
 20
51.0067
 30
0.0
 11
82.7828
 21
63.8087
 31
0.0
  0
LINE
  8
0
 62
     0
 10
63.7328
 20
63.8087
 30
0.0
 11
79.3323
 21
63.8087
 31
0.0
  0
LINE
  8
0
 62
     0
 10
79.3323
 20
63.8087
 30
0.0
 11
79.3323
 21
51.0067
 31
0.0
  0
LINE
  8
0
 62
     0
 10
79.3323
 20
51.0067
 30
0.0
 11
63.7328
 21
51.0067
 31
0.0
  0
LINE
  8
0
 62
     0
 10
63.7328
 20
51.0067
 30
0.0
 11
63.7328
 21
63.8087
 31
0.0
  0
LINE
  8
0
 62
     0
 10
44.6828
 20
63.8087
 30
0.0
 11
60.2823
 21
63.8087
 31
0.0
  0
LINE
  8
0
 62
     0
 10
60.2823
 20
63.8087
 30
0.0
 11
60.2823
 21
51.0067
 31
0.0
  0
LINE
  8
0
 62
     0
 10
60.2823
 20
51.0067
 30
0.0
 11
44.6828
 21
51.0067
 31
0.0
  0
LINE
  8
0
 62
     0
 10
44.6828
 20
51.0067
 30
0.0
 11
44.6828
 21
63.8087
 31
0.0
  0
LINE
  8
0
 62
     0
 10
18.4892
 20
63.8087
 30
0.0
 11
34.0885
 21
63.8087
 31
0.0
  0
LINE
  8
0
 62
     0
 10
34.0885
 20
63.8087
 30
0.0
 11
34.0885
 21
51.0067
 31
0.0
  0
LINE
  8
0
 62
     0
 10
34.0885
 20
51.0067
 30
0.0
 11
18.4892
 21
51.0067
 31
0.0
  0
LINE
  8
0
 62
     0
 10
18.4892
 20
51.0067
 30
0.0
 11
18.4892
 21
63.8087
 31
0.0
  0
LINE
  8
0
 62
     0
 10
339.958
 20
82.8587
 30
0.0
 11
355.558
 21
82.8587
 31
0.0
  0
LINE
  8
0
 62
     0
 10
355.558
 20
82.8587
 30
0.0
 11
355.558
 21
70.0567
 31
0.0
  0
LINE
  8
0
 62
     0
 10
355.558
 20
70.0567
 30
0.0
 11
339.958
 21
70.0567
 31
0.0
  0
LINE
  8
0
 62
     0
 10
339.958
 20
70.0567
 30
0.0
 11
339.958
 21
82.8587
 31
0.0
  0
LINE
  8
0
 62
     0
 10
320.908
 20
82.8587
 30
0.0
 11
336.507
 21
82.8587
 31
0.0
  0
LINE
  8
0
 62
     0
 10
336.507
 20
82.8587
 30
0.0
 11
336.507
 21
70.0567
 31
0.0
  0
LINE
  8
0
 62
     0
 10
336.507
 20
70.0567
 30
0.0
 11
320.908
 21
70.0567
 31
0.0
  0
LINE
  8
0
 62
     0
 10
320.908
 20
70.0567
 30
0.0
 11
320.908
 21
82.8587
 31
0.0
  0
LINE
  8
0
 62
     0
 10
301.858
 20
82.8587
 30
0.0
 11
317.457
 21
82.8587
 31
0.0
  0
LINE
  8
0
 62
     0
 10
317.457
 20
82.8587
 30
0.0
 11
317.457
 21
70.0567
 31
0.0
  0
LINE
  8
0
 62
     0
 10
317.457
 20
70.0567
 30
0.0
 11
301.858
 21
70.0567
 31
0.0
  0
LINE
  8
0
 62
     0
 10
301.858
 20
70.0567
 30
0.0
 11
301.858
 21
82.8587
 31
0.0
  0
LINE
  8
0
 62
     0
 10
273.283
 20
82.8587
 30
0.0
 11
288.882
 21
82.8587
 31
0.0
  0
LINE
  8
0
 62
     0
 10
288.882
 20
82.8587
 30
0.0
 11
288.882
 21
70.0567
 31
0.0
  0
LINE
  8
0
 62
     0
 10
288.882
 20
70.0567
 30
0.0
 11
273.283
 21
70.0567
 31
0.0
  0
LINE
  8
0
 62
     0
 10
273.283
 20
70.0567
 30
0.0
 11
273.283
 21
82.8587
 31
0.0
  0
LINE
  8
0
 62
     0
 10
249.47
 20
82.8587
 30
0.0
 11
265.071
 21
82.8587
 31
0.0
  0
LINE
  8
0
 62
     0
 10
265.071
 20
82.8587
 30
0.0
 11
265.071
 21
70.0567
 31
0.0
  0
LINE
  8
0
 62
     0
 10
265.071
 20
70.0567
 30
0.0
 11
249.47
 21
70.0567
 31
0.0
  0
LINE
  8
0
 62
     0
 10
249.47
 20
70.0567
 30
0.0
 11
249.47
 21
82.8587
 31
0.0
  0
LINE
  8
0
 62
     0
 10
230.42
 20
82.8587
 30
0.0
 11
246.021
 21
82.8587
 31
0.0
  0
LINE
  8
0
 62
     0
 10
246.021
 20
82.8587
 30
0.0
 11
246.021
 21
70.0567
 31
0.0
  0
LINE
  8
0
 62
     0
 10
246.021
 20
70.0567
 30
0.0
 11
230.42
 21
70.0567
 31
0.0
  0
LINE
  8
0
 62
     0
 10
230.42
 20
70.0567
 30
0.0
 11
230.42
 21
82.8587
 31
0.0
  0
LINE
  8
0
 62
     0
 10
211.37
 20
82.8587
 30
0.0
 11
226.971
 21
82.8587
 31
0.0
  0
LINE
  8
0
 62
     0
 10
226.971
 20
82.8587
 30
0.0
 11
226.971
 21
70.0567
 31
0.0
  0
LINE
  8
0
 62
     0
 10
226.971
 20
70.0567
 30
0.0
 11
211.37
 21
70.0567
 31
0.0
  0
LINE
  8
0
 62
     0
 10
211.37
 20
70.0567
 30
0.0
 11
211.37
 21
82.8587
 31
0.0
  0
LINE
  8
0
 62
     0
 10
192.32
 20
82.8587
 30
0.0
 11
207.921
 21
82.8587
 31
0.0
  0
LINE
  8
0
 62
     0
 10
207.921
 20
82.8587
 30
0.0
 11
207.921
 21
70.0567
 31
0.0
  0
LINE
  8
0
 62
     0
 10
207.921
 20
70.0567
 30
0.0
 11
192.32
 21
70.0567
 31
0.0
  0
LINE
  8
0
 62
     0
 10
192.32
 20
70.0567
 30
0.0
 11
192.32
 21
82.8587
 31
0.0
  0
LINE
  8
0
 62
     0
 10
173.27
 20
82.8587
 30
0.0
 11
188.871
 21
82.8587
 31
0.0
  0
LINE
  8
0
 62
     0
 10
188.871
 20
82.8587
 30
0.0
 11
188.871
 21
70.0567
 31
0.0
  0
LINE
  8
0
 62
     0
 10
188.871
 20
70.0567
 30
0.0
 11
173.27
 21
70.0567
 31
0.0
  0
LINE
  8
0
 62
     0
 10
173.27
 20
70.0567
 30
0.0
 11
173.27
 21
82.8587
 31
0.0
  0
LINE
  8
0
 62
     0
 10
154.22
 20
82.8587
 30
0.0
 11
169.821
 21
82.8587
 31
0.0
  0
LINE
  8
0
 62
     0
 10
169.821
 20
82.8587
 30
0.0
 11
169.821
 21
70.0567
 31
0.0
  0
LINE
  8
0
 62
     0
 10
169.821
 20
70.0567
 30
0.0
 11
154.22
 21
70.0567
 31
0.0
  0
LINE
  8
0
 62
     0
 10
154.22
 20
70.0567
 30
0.0
 11
154.22
 21
82.8587
 31
0.0
  0
LINE
  8
0
 62
     0
 10
135.17
 20
82.8587
 30
0.0
 11
150.771
 21
82.8587
 31
0.0
  0
LINE
  8
0
 62
     0
 10
150.771
 20
82.8587
 30
0.0
 11
150.771
 21
70.0567
 31
0.0
  0
LINE
  8
0
 62
     0
 10
150.771
 20
70.0567
 30
0.0
 11
135.17
 21
70.0567
 31
0.0
  0
LINE
  8
0
 62
     0
 10
135.17
 20
70.0567
 30
0.0
 11
135.17
 21
82.8587
 31
0.0
  0
LINE
  8
0
 62
     0
 10
116.119
 20
82.8587
 30
0.0
 11
131.721
 21
82.8587
 31
0.0
  0
LINE
  8
0
 62
     0
 10
131.721
 20
82.8587
 30
0.0
 11
131.721
 21
70.0567
 31
0.0
  0
LINE
  8
0
 62
     0
 10
131.721
 20
70.0567
 30
0.0
 11
116.119
 21
70.0567
 31
0.0
  0
LINE
  8
0
 62
     0
 10
116.119
 20
70.0567
 30
0.0
 11
116.119
 21
82.8587
 31
0.0
  0
LINE
  8
0
 62
     0
 10
97.0703
 20
82.8587
 30
0.0
 11
112.67
 21
82.8587
 31
0.0
  0
LINE
  8
0
 62
     0
 10
112.67
 20
82.8587
 30
0.0
 11
112.67
 21
70.0567
 31
0.0
  0
LINE
  8
0
 62
     0
 10
112.67
 20
70.0567
 30
0.0
 11
97.0703
 21
70.0567
 31
0.0
  0
LINE
  8
0
 62
     0
 10
97.0703
 20
70.0567
 30
0.0
 11
97.0703
 21
82.8587
 31
0.0
  0
LINE
  8
0
 62
     0
 10
78.0203
 20
82.8587
 30
0.0
 11
93.6198
 21
82.8587
 31
0.0
  0
LINE
  8
0
 62
     0
 10
93.6198
 20
82.8587
 30
0.0
 11
93.6198
 21
70.0567
 31
0.0
  0
LINE
  8
0
 62
     0
 10
93.6198
 20
70.0567
 30
0.0
 11
78.0203
 21
70.0567
 31
0.0
  0
LINE
  8
0
 62
     0
 10
78.0203
 20
70.0567
 30
0.0
 11
78.0203
 21
82.8587
 31
0.0
  0
LINE
  8
0
 62
     0
 10
58.9703
 20
82.8587
 30
0.0
 11
74.5712
 21
82.8587
 31
0.0
  0
LINE
  8
0
 62
     0
 10
74.5712
 20
82.8587
 30
0.0
 11
74.5712
 21
70.0567
 31
0.0
  0
LINE
  8
0
 62
     0
 10
74.5712
 20
70.0567
 30
0.0
 11
58.9703
 21
70.0567
 31
0.0
  0
LINE
  8
0
 62
     0
 10
58.9703
 20
70.0567
 30
0.0
 11
58.9703
 21
82.8587
 31
0.0
  0
LINE
  8
0
 62
     0
 10
39.9203
 20
82.8587
 30
0.0
 11
55.5212
 21
82.8587
 31
0.0
  0
LINE
  8
0
 62
     0
 10
55.5212
 20
82.8587
 30
0.0
 11
55.5212
 21
70.0567
 31
0.0
  0
LINE
  8
0
 62
     0
 10
55.5212
 20
70.0567
 30
0.0
 11
39.9203
 21
70.0567
 31
0.0
  0
LINE
  8
0
 62
     0
 10
39.9203
 20
70.0567
 30
0.0
 11
39.9203
 21
82.8587
 31
0.0
  0
LINE
  8
0
 62
     0
 10
16.1079
 20
82.8587
 30
0.0
 11
31.7073
 21
82.8587
 31
0.0
  0
LINE
  8
0
 62
     0
 10
31.7073
 20
82.8587
 30
0.0
 11
31.7073
 21
70.0567
 31
0.0
  0
LINE
  8
0
 62
     0
 10
31.7073
 20
70.0567
 30
0.0
 11
16.1079
 21
70.0567
 31
0.0
  0
LINE
  8
0
 62
     0
 10
16.1079
 20
70.0567
 30
0.0
 11
16.1079
 21
82.8587
 31
0.0
  0
LINE
  8
0
 62
     0
 10
286.57
 20
101.957
 30
0.0
 11
289.87
 21
101.957
 31
0.0
  0
LINE
  8
0
 62
     0
 10
289.87
 20
101.957
 30
0.0
 11
289.87
 21
87.7577
 31
0.0
  0
LINE
  8
0
 62
     0
 10
289.87
 20
87.7577
 30
0.0
 11
286.57
 21
87.7577
 31
0.0
  0
LINE
  8
0
 62
     0
 10
286.57
 20
87.7577
 30
0.0
 11
286.57
 21
101.957
 31
0.0
  0
LINE
  8
0
 62
     0
 10
262.77
 20
101.957
 30
0.0
 11
266.07
 21
101.957
 31
0.0
  0
LINE
  8
0
 62
     0
 10
266.07
 20
101.957
 30
0.0
 11
266.07
 21
87.7577
 31
0.0
  0
LINE
  8
0
 62
     0
 10
266.07
 20
87.7577
 30
0.0
 11
262.77
 21
87.7577
 31
0.0
  0
LINE
  8
0
 62
     0
 10
262.77
 20
87.7577
 30
0.0
 11
262.77
 21
101.957
 31
0.0
  0
LINE
  8
0
 62
     0
 10
339.958
 20
101.907
 30
0.0
 11
355.558
 21
101.907
 31
0.0
  0
LINE
  8
0
 62
     0
 10
355.558
 20
101.907
 30
0.0
 11
355.558
 21
89.1067
 31
0.0
  0
LINE
  8
0
 62
     0
 10
355.558
 20
89.1067
 30
0.0
 11
339.958
 21
89.1067
 31
0.0
  0
LINE
  8
0
 62
     0
 10
339.958
 20
89.1067
 30
0.0
 11
339.958
 21
101.907
 31
0.0
  0
LINE
  8
0
 62
     0
 10
320.908
 20
101.907
 30
0.0
 11
336.507
 21
101.907
 31
0.0
  0
LINE
  8
0
 62
     0
 10
336.507
 20
101.907
 30
0.0
 11
336.507
 21
89.1067
 31
0.0
  0
LINE
  8
0
 62
     0
 10
336.507
 20
89.1067
 30
0.0
 11
320.908
 21
89.1067
 31
0.0
  0
LINE
  8
0
 62
     0
 10
320.908
 20
89.1067
 30
0.0
 11
320.908
 21
101.907
 31
0.0
  0
LINE
  8
0
 62
     0
 10
301.858
 20
101.907
 30
0.0
 11
317.457
 21
101.907
 31
0.0
  0
LINE
  8
0
 62
     0
 10
317.457
 20
101.907
 30
0.0
 11
317.457
 21
89.1067
 31
0.0
  0
LINE
  8
0
 62
     0
 10
317.457
 20
89.1067
 30
0.0
 11
301.858
 21
89.1067
 31
0.0
  0
LINE
  8
0
 62
     0
 10
301.858
 20
89.1067
 30
0.0
 11
301.858
 21
101.907
 31
0.0
  0
LINE
  8
0
 62
     0
 10
268.52
 20
101.907
 30
0.0
 11
284.121
 21
101.907
 31
0.0
  0
LINE
  8
0
 62
     0
 10
284.121
 20
101.907
 30
0.0
 11
284.121
 21
89.1067
 31
0.0
  0
LINE
  8
0
 62
     0
 10
284.121
 20
89.1067
 30
0.0
 11
268.52
 21
89.1067
 31
0.0
  0
LINE
  8
0
 62
     0
 10
268.52
 20
89.1067
 30
0.0
 11
268.52
 21
101.907
 31
0.0
  0
LINE
  8
0
 62
     0
 10
239.945
 20
101.907
 30
0.0
 11
255.546
 21
101.907
 31
0.0
  0
LINE
  8
0
 62
     0
 10
255.546
 20
101.907
 30
0.0
 11
255.546
 21
89.1067
 31
0.0
  0
LINE
  8
0
 62
     0
 10
255.546
 20
89.1067
 30
0.0
 11
239.945
 21
89.1067
 31
0.0
  0
LINE
  8
0
 62
     0
 10
239.945
 20
89.1067
 30
0.0
 11
239.945
 21
101.907
 31
0.0
  0
LINE
  8
0
 62
     0
 10
220.895
 20
101.907
 30
0.0
 11
236.496
 21
101.907
 31
0.0
  0
LINE
  8
0
 62
     0
 10
236.496
 20
101.907
 30
0.0
 11
236.496
 21
89.1067
 31
0.0
  0
LINE
  8
0
 62
     0
 10
236.496
 20
89.1067
 30
0.0
 11
220.895
 21
89.1067
 31
0.0
  0
LINE
  8
0
 62
     0
 10
220.895
 20
89.1067
 30
0.0
 11
220.895
 21
101.907
 31
0.0
  0
LINE
  8
0
 62
     0
 10
201.845
 20
101.907
 30
0.0
 11
217.446
 21
101.907
 31
0.0
  0
LINE
  8
0
 62
     0
 10
217.446
 20
101.907
 30
0.0
 11
217.446
 21
89.1067
 31
0.0
  0
LINE
  8
0
 62
     0
 10
217.446
 20
89.1067
 30
0.0
 11
201.845
 21
89.1067
 31
0.0
  0
LINE
  8
0
 62
     0
 10
201.845
 20
89.1067
 30
0.0
 11
201.845
 21
101.907
 31
0.0
  0
LINE
  8
0
 62
     0
 10
182.795
 20
101.907
 30
0.0
 11
198.396
 21
101.907
 31
0.0
  0
LINE
  8
0
 62
     0
 10
198.396
 20
101.907
 30
0.0
 11
198.396
 21
89.1067
 31
0.0
  0
LINE
  8
0
 62
     0
 10
198.396
 20
89.1067
 30
0.0
 11
182.795
 21
89.1067
 31
0.0
  0
LINE
  8
0
 62
     0
 10
182.795
 20
89.1067
 30
0.0
 11
182.795
 21
101.907
 31
0.0
  0
LINE
  8
0
 62
     0
 10
163.745
 20
101.907
 30
0.0
 11
179.346
 21
101.907
 31
0.0
  0
LINE
  8
0
 62
     0
 10
179.346
 20
101.907
 30
0.0
 11
179.346
 21
89.1067
 31
0.0
  0
LINE
  8
0
 62
     0
 10
179.346
 20
89.1067
 30
0.0
 11
163.745
 21
89.1067
 31
0.0
  0
LINE
  8
0
 62
     0
 10
163.745
 20
89.1067
 30
0.0
 11
163.745
 21
101.907
 31
0.0
  0
LINE
  8
0
 62
     0
 10
144.695
 20
101.907
 30
0.0
 11
160.296
 21
101.907
 31
0.0
  0
LINE
  8
0
 62
     0
 10
160.296
 20
101.907
 30
0.0
 11
160.296
 21
89.1067
 31
0.0
  0
LINE
  8
0
 62
     0
 10
160.296
 20
89.1067
 30
0.0
 11
144.695
 21
89.1067
 31
0.0
  0
LINE
  8
0
 62
     0
 10
144.695
 20
89.1067
 30
0.0
 11
144.695
 21
101.907
 31
0.0
  0
LINE
  8
0
 62
     0
 10
125.644
 20
101.907
 30
0.0
 11
141.246
 21
101.907
 31
0.0
  0
LINE
  8
0
 62
     0
 10
141.246
 20
101.907
 30
0.0
 11
141.246
 21
89.1067
 31
0.0
  0
LINE
  8
0
 62
     0
 10
141.246
 20
89.1067
 30
0.0
 11
125.644
 21
89.1067
 31
0.0
  0
LINE
  8
0
 62
     0
 10
125.644
 20
89.1067
 30
0.0
 11
125.644
 21
101.907
 31
0.0
  0
LINE
  8
0
 62
     0
 10
106.595
 20
101.907
 30
0.0
 11
122.196
 21
101.907
 31
0.0
  0
LINE
  8
0
 62
     0
 10
122.196
 20
101.907
 30
0.0
 11
122.196
 21
89.1067
 31
0.0
  0
LINE
  8
0
 62
     0
 10
122.196
 20
89.1067
 30
0.0
 11
106.595
 21
89.1067
 31
0.0
  0
LINE
  8
0
 62
     0
 10
106.595
 20
89.1067
 30
0.0
 11
106.595
 21
101.907
 31
0.0
  0
LINE
  8
0
 62
     0
 10
87.5453
 20
101.907
 30
0.0
 11
103.146
 21
101.907
 31
0.0
  0
LINE
  8
0
 62
     0
 10
103.146
 20
101.907
 30
0.0
 11
103.146
 21
89.1067
 31
0.0
  0
LINE
  8
0
 62
     0
 10
103.146
 20
89.1067
 30
0.0
 11
87.5453
 21
89.1067
 31
0.0
  0
LINE
  8
0
 62
     0
 10
87.5453
 20
89.1067
 30
0.0
 11
87.5453
 21
101.907
 31
0.0
  0
LINE
  8
0
 62
     0
 10
68.4953
 20
101.907
 30
0.0
 11
84.0962
 21
101.907
 31
0.0
  0
LINE
  8
0
 62
     0
 10
84.0962
 20
101.907
 30
0.0
 11
84.0962
 21
89.1067
 31
0.0
  0
LINE
  8
0
 62
     0
 10
84.0962
 20
89.1067
 30
0.0
 11
68.4953
 21
89.1067
 31
0.0
  0
LINE
  8
0
 62
     0
 10
68.4953
 20
89.1067
 30
0.0
 11
68.4953
 21
101.907
 31
0.0
  0
LINE
  8
0
 62
     0
 10
49.4453
 20
101.907
 30
0.0
 11
65.0462
 21
101.907
 31
0.0
  0
LINE
  8
0
 62
     0
 10
65.0462
 20
101.907
 30
0.0
 11
65.0462
 21
89.1067
 31
0.0
  0
LINE
  8
0
 62
     0
 10
65.0462
 20
89.1067
 30
0.0
 11
49.4453
 21
89.1067
 31
0.0
  0
LINE
  8
0
 62
     0
 10
49.4453
 20
89.1067
 30
0.0
 11
49.4453
 21
101.907
 31
0.0
  0
LINE
  8
0
 62
     0
 10
30.3954
 20
101.907
 30
0.0
 11
45.9962
 21
101.907
 31
0.0
  0
LINE
  8
0
 62
     0
 10
45.9962
 20
101.907
 30
0.0
 11
45.9962
 21
89.1067
 31
0.0
  0
LINE
  8
0
 62
     0
 10
45.9962
 20
89.1067
 30
0.0
 11
30.3954
 21
89.1067
 31
0.0
  0
LINE
  8
0
 62
     0
 10
30.3954
 20
89.1067
 30
0.0
 11
30.3954
 21
101.907
 31
0.0
  0
LINE
  8
0
 62
     0
 10
11.3454
 20
101.907
 30
0.0
 11
26.9462
 21
101.907
 31
0.0
  0
LINE
  8
0
 62
     0
 10
26.9462
 20
101.907
 30
0.0
 11
26.9462
 21
89.1067
 31
0.0
  0
LINE
  8
0
 62
     0
 10
26.9462
 20
89.1067
 30
0.0
 11
11.3454
 21
89.1067
 31
0.0
  0
LINE
  8
0
 62
     0
 10
11.3454
 20
89.1067
 30
0.0
 11
11.3454
 21
101.907
 31
0.0
  0
LINE
  8
0
 62
     0
 10
339.958
 20
130.482
 30
0.0
 11
355.558
 21
130.482
 31
0.0
  0
LINE
  8
0
 62
     0
 10
355.558
 20
130.482
 30
0.0
 11
355.558
 21
117.682
 31
0.0
  0
LINE
  8
0
 62
     0
 10
355.558
 20
117.682
 30
0.0
 11
339.958
 21
117.682
 31
0.0
  0
LINE
  8
0
 62
     0
 10
339.958
 20
117.682
 30
0.0
 11
339.958
 21
130.482
 31
0.0
  0
LINE
  8
0
 62
     0
 10
320.908
 20
130.482
 30
0.0
 11
336.507
 21
130.482
 31
0.0
  0
LINE
  8
0
 62
     0
 10
336.507
 20
130.482
 30
0.0
 11
336.507
 21
117.682
 31
0.0
  0
LINE
  8
0
 62
     0
 10
336.507
 20
117.682
 30
0.0
 11
320.908
 21
117.682
 31
0.0
  0
LINE
  8
0
 62
     0
 10
320.908
 20
117.682
 30
0.0
 11
320.908
 21
130.482
 31
0.0
  0
LINE
  8
0
 62
     0
 10
301.858
 20
130.482
 30
0.0
 11
317.457
 21
130.482
 31
0.0
  0
LINE
  8
0
 62
     0
 10
317.457
 20
130.482
 30
0.0
 11
317.457
 21
117.682
 31
0.0
  0
LINE
  8
0
 62
     0
 10
317.457
 20
117.682
 30
0.0
 11
301.858
 21
117.682
 31
0.0
  0
LINE
  8
0
 62
     0
 10
301.858
 20
117.682
 30
0.0
 11
301.858
 21
130.482
 31
0.0
  0
LINE
  8
0
 62
     0
 10
278.045
 20
130.482
 30
0.0
 11
293.646
 21
130.482
 31
0.0
  0
LINE
  8
0
 62
     0
 10
293.646
 20
130.482
 30
0.0
 11
293.646
 21
117.682
 31
0.0
  0
LINE
  8
0
 62
     0
 10
293.646
 20
117.682
 30
0.0
 11
278.045
 21
117.682
 31
0.0
  0
LINE
  8
0
 62
     0
 10
278.045
 20
117.682
 30
0.0
 11
278.045
 21
130.482
 31
0.0
  0
LINE
  8
0
 62
     0
 10
258.995
 20
130.482
 30
0.0
 11
274.596
 21
130.482
 31
0.0
  0
LINE
  8
0
 62
     0
 10
274.596
 20
130.482
 30
0.0
 11
274.596
 21
117.682
 31
0.0
  0
LINE
  8
0
 62
     0
 10
274.596
 20
117.682
 30
0.0
 11
258.995
 21
117.682
 31
0.0
  0
LINE
  8
0
 62
     0
 10
258.995
 20
117.682
 30
0.0
 11
258.995
 21
130.482
 31
0.0
  0
LINE
  8
0
 62
     0
 10
239.945
 20
130.482
 30
0.0
 11
255.546
 21
130.482
 31
0.0
  0
LINE
  8
0
 62
     0
 10
255.546
 20
130.482
 30
0.0
 11
255.546
 21
117.682
 31
0.0
  0
LINE
  8
0
 62
     0
 10
255.546
 20
117.682
 30
0.0
 11
239.945
 21
117.682
 31
0.0
  0
LINE
  8
0
 62
     0
 10
239.945
 20
117.682
 30
0.0
 11
239.945
 21
130.482
 31
0.0
  0
LINE
  8
0
 62
     0
 10
220.895
 20
130.482
 30
0.0
 11
236.496
 21
130.482
 31
0.0
  0
LINE
  8
0
 62
     0
 10
236.496
 20
130.482
 30
0.0
 11
236.496
 21
117.682
 31
0.0
  0
LINE
  8
0
 62
     0
 10
236.496
 20
117.682
 30
0.0
 11
220.895
 21
117.682
 31
0.0
  0
LINE
  8
0
 62
     0
 10
220.895
 20
117.682
 30
0.0
 11
220.895
 21
130.482
 31
0.0
  0
LINE
  8
0
 62
     0
 10
192.32
 20
130.482
 30
0.0
 11
207.921
 21
130.482
 31
0.0
  0
LINE
  8
0
 62
     0
 10
207.921
 20
130.482
 30
0.0
 11
207.921
 21
117.682
 31
0.0
  0
LINE
  8
0
 62
     0
 10
207.921
 20
117.682
 30
0.0
 11
192.32
 21
117.682
 31
0.0
  0
LINE
  8
0
 62
     0
 10
192.32
 20
117.682
 30
0.0
 11
192.32
 21
130.482
 31
0.0
  0
LINE
  8
0
 62
     0
 10
173.27
 20
130.482
 30
0.0
 11
188.871
 21
130.482
 31
0.0
  0
LINE
  8
0
 62
     0
 10
188.871
 20
130.482
 30
0.0
 11
188.871
 21
117.682
 31
0.0
  0
LINE
  8
0
 62
     0
 10
188.871
 20
117.682
 30
0.0
 11
173.27
 21
117.682
 31
0.0
  0
LINE
  8
0
 62
     0
 10
173.27
 20
117.682
 30
0.0
 11
173.27
 21
130.482
 31
0.0
  0
LINE
  8
0
 62
     0
 10
154.22
 20
130.482
 30
0.0
 11
169.821
 21
130.482
 31
0.0
  0
LINE
  8
0
 62
     0
 10
169.821
 20
130.482
 30
0.0
 11
169.821
 21
117.682
 31
0.0
  0
LINE
  8
0
 62
     0
 10
169.821
 20
117.682
 30
0.0
 11
154.22
 21
117.682
 31
0.0
  0
LINE
  8
0
 62
     0
 10
154.22
 20
117.682
 30
0.0
 11
154.22
 21
130.482
 31
0.0
  0
LINE
  8
0
 62
     0
 10
135.17
 20
130.482
 30
0.0
 11
150.771
 21
130.482
 31
0.0
  0
LINE
  8
0
 62
     0
 10
150.771
 20
130.482
 30
0.0
 11
150.771
 21
117.682
 31
0.0
  0
LINE
  8
0
 62
     0
 10
150.771
 20
117.682
 30
0.0
 11
135.17
 21
117.682
 31
0.0
  0
LINE
  8
0
 62
     0
 10
135.17
 20
117.682
 30
0.0
 11
135.17
 21
130.482
 31
0.0
  0
LINE
  8
0
 62
     0
 10
106.595
 20
130.482
 30
0.0
 11
122.196
 21
130.482
 31
0.0
  0
LINE
  8
0
 62
     0
 10
122.196
 20
130.482
 30
0.0
 11
122.196
 21
117.682
 31
0.0
  0
LINE
  8
0
 62
     0
 10
122.196
 20
117.682
 30
0.0
 11
106.595
 21
117.682
 31
0.0
  0
LINE
  8
0
 62
     0
 10
106.595
 20
117.682
 30
0.0
 11
106.595
 21
130.482
 31
0.0
  0
LINE
  8
0
 62
     0
 10
87.5453
 20
130.482
 30
0.0
 11
103.146
 21
130.482
 31
0.0
  0
LINE
  8
0
 62
     0
 10
103.146
 20
130.482
 30
0.0
 11
103.146
 21
117.682
 31
0.0
  0
LINE
  8
0
 62
     0
 10
103.146
 20
117.682
 30
0.0
 11
87.5453
 21
117.682
 31
0.0
  0
LINE
  8
0
 62
     0
 10
87.5453
 20
117.682
 30
0.0
 11
87.5453
 21
130.482
 31
0.0
  0
LINE
  8
0
 62
     0
 10
68.4953
 20
130.482
 30
0.0
 11
84.0962
 21
130.482
 31
0.0
  0
LINE
  8
0
 62
     0
 10
84.0962
 20
130.482
 30
0.0
 11
84.0962
 21
117.682
 31
0.0
  0
LINE
  8
0
 62
     0
 10
84.0962
 20
117.682
 30
0.0
 11
68.4953
 21
117.682
 31
0.0
  0
LINE
  8
0
 62
     0
 10
68.4953
 20
117.682
 30
0.0
 11
68.4953
 21
130.482
 31
0.0
  0
LINE
  8
0
 62
     0
 10
49.4453
 20
130.482
 30
0.0
 11
65.0462
 21
130.482
 31
0.0
  0
LINE
  8
0
 62
     0
 10
65.0462
 20
130.482
 30
0.0
 11
65.0462
 21
117.682
 31
0.0
  0
LINE
  8
0
 62
     0
 10
65.0462
 20
117.682
 30
0.0
 11
49.4453
 21
117.682
 31
0.0
  0
LINE
  8
0
 62
     0
 10
49.4453
 20
117.682
 30
0.0
 11
49.4453
 21
130.482
 31
0.0
  0
LINE
  8
0
 62
     0
 10
11.3454
 20
130.482
 30
0.0
 11
26.9462
 21
130.482
 31
0.0
  0
LINE
  8
0
 62
     0
 10
26.9462
 20
130.482
 30
0.0
 11
26.9462
 21
117.682
 31
0.0
  0
LINE
  8
0
 62
     0
 10
26.9462
 20
117.682
 30
0.0
 11
11.3454
 21
117.682
 31
0.0
  0
LINE
  8
0
 62
     0
 10
11.3454
 20
117.682
 30
0.0
 11
11.3454
 21
130.482
 31
0.0
  0
ENDSEC
  0
EOF
